%!PS-Adobe-3.0 EPSF-3.0
%%Title: hsa_kernel_launching.eps
%%Creator: matplotlib version 2.0.2, http://matplotlib.org/
%%CreationDate: Thu Jun  1 23:10:43 2017
%%Orientation: portrait
%%BoundingBox: -270 270 882 522
%%EndComments
%%BeginProlog
/mpldict 9 dict def
mpldict begin
/m { moveto } bind def
/l { lineto } bind def
/r { rlineto } bind def
/c { curveto } bind def
/cl { closepath } bind def
/box {
m
1 index 0 r
0 exch r
neg 0 r
cl
} bind def
/clipbox {
box
clip
newpath
} bind def
%!PS-Adobe-3.0 Resource-Font
%%Title: DejaVu Sans
%%Copyright: Copyright (c) 2003 by Bitstream, Inc. All Rights Reserved. Copyright (c) 2006 by Tavmjong Bah. All Rights Reserved. DejaVu changes are in public domain 
%%Creator: Converted from TrueType to type 3 by PPR
25 dict begin
/_d{bind def}bind def
/_m{moveto}_d
/_l{lineto}_d
/_cl{closepath eofill}_d
/_c{curveto}_d
/_sc{7 -1 roll{setcachedevice}{pop pop pop pop pop pop}ifelse}_d
/_e{exec}_d
/FontName /DejaVuSans def
/PaintType 0 def
/FontMatrix[.001 0 0 .001 0 0]def
/FontBBox[-1021 -463 1793 1232]def
/FontType 3 def
/Encoding [ /hyphen /zero /one /two /four /six /A /B /D /E /F /G /K /L /N /P /S /W /a /e /m /n ] def
/FontInfo 10 dict dup begin
/FamilyName (DejaVu Sans) def
/FullName (DejaVu Sans) def
/Notice (Copyright (c) 2003 by Bitstream, Inc. All Rights Reserved. Copyright (c) 2006 by Tavmjong Bah. All Rights Reserved. DejaVu changes are in public domain ) def
/Weight (Book) def
/Version (Version 2.35) def
/ItalicAngle 0.0 def
/isFixedPitch false def
/UnderlinePosition -130 def
/UnderlineThickness 90 def
end readonly def
/CharStrings 22 dict dup begin
/hyphen{361 0 49 234 312 314 _sc
49 314 _m
312 314 _l
312 234 _l
49 234 _l
49 314 _l
_cl}_d
/zero{636 0 66 -13 570 742 _sc
318 664 _m
267 664 229 639 203 589 _c
177 539 165 464 165 364 _c
165 264 177 189 203 139 _c
229 89 267 64 318 64 _c
369 64 407 89 433 139 _c
458 189 471 264 471 364 _c
471 464 458 539 433 589 _c
407 639 369 664 318 664 _c
318 742 _m
399 742 461 709 505 645 _c
548 580 570 486 570 364 _c
570 241 548 147 505 83 _c
461 19 399 -13 318 -13 _c
236 -13 173 19 130 83 _c
87 147 66 241 66 364 _c
66 486 87 580 130 645 _c
173 709 236 742 318 742 _c
_cl}_d
/one{636 0 110 0 544 729 _sc
124 83 _m
285 83 _l
285 639 _l
110 604 _l
110 694 _l
284 729 _l
383 729 _l
383 83 _l
544 83 _l
544 0 _l
124 0 _l
124 83 _l
_cl}_d
/two{{636 0 73 0 536 742 _sc
192 83 _m
536 83 _l
536 0 _l
73 0 _l
73 83 _l
110 121 161 173 226 239 _c
290 304 331 346 348 365 _c
380 400 402 430 414 455 _c
426 479 433 504 433 528 _c
433 566 419 598 392 622 _c
365 646 330 659 286 659 _c
255 659 222 653 188 643 _c
154 632 117 616 78 594 _c
78 694 _l
118 710 155 722 189 730 _c
223 738 255 742 284 742 _c
}_e{359 742 419 723 464 685 _c
509 647 532 597 532 534 _c
532 504 526 475 515 449 _c
504 422 484 390 454 354 _c
446 344 420 317 376 272 _c
332 227 271 164 192 83 _c
_cl}_e}_d
/four{636 0 49 0 580 729 _sc
378 643 _m
129 254 _l
378 254 _l
378 643 _l
352 729 _m
476 729 _l
476 254 _l
580 254 _l
580 172 _l
476 172 _l
476 0 _l
378 0 _l
378 172 _l
49 172 _l
49 267 _l
352 729 _l
_cl}_d
/six{{636 0 70 -13 573 742 _sc
330 404 _m
286 404 251 388 225 358 _c
199 328 186 286 186 234 _c
186 181 199 139 225 109 _c
251 79 286 64 330 64 _c
374 64 409 79 435 109 _c
461 139 474 181 474 234 _c
474 286 461 328 435 358 _c
409 388 374 404 330 404 _c
526 713 _m
526 623 _l
501 635 476 644 451 650 _c
425 656 400 659 376 659 _c
310 659 260 637 226 593 _c
}_e{192 549 172 482 168 394 _c
187 422 211 444 240 459 _c
269 474 301 482 336 482 _c
409 482 467 459 509 415 _c
551 371 573 310 573 234 _c
573 159 550 99 506 54 _c
462 9 403 -13 330 -13 _c
246 -13 181 19 137 83 _c
92 147 70 241 70 364 _c
70 479 97 571 152 639 _c
206 707 280 742 372 742 _c
396 742 421 739 447 735 _c
472 730 498 723 526 713 _c
_cl}_e}_d
/A{684 0 8 0 676 729 _sc
342 632 _m
208 269 _l
476 269 _l
342 632 _l
286 729 _m
398 729 _l
676 0 _l
573 0 _l
507 187 _l
178 187 _l
112 0 _l
8 0 _l
286 729 _l
_cl}_d
/B{{686 0 98 0 615 729 _sc
197 348 _m
197 81 _l
355 81 _l
408 81 447 92 473 114 _c
498 136 511 169 511 215 _c
511 260 498 293 473 315 _c
447 337 408 348 355 348 _c
197 348 _l
197 648 _m
197 428 _l
343 428 _l
391 428 426 437 450 455 _c
474 473 486 500 486 538 _c
486 574 474 602 450 620 _c
426 638 391 648 343 648 _c
197 648 _l
98 729 _m
350 729 _l
}_e{425 729 483 713 524 682 _c
564 650 585 606 585 549 _c
585 504 574 468 553 442 _c
532 416 502 399 462 393 _c
510 382 548 360 575 327 _c
601 294 615 253 615 204 _c
615 138 592 88 548 53 _c
504 17 441 0 360 0 _c
98 0 _l
98 729 _l
_cl}_e}_d
/D{770 0 98 0 711 729 _sc
197 648 _m
197 81 _l
316 81 _l
416 81 490 103 537 149 _c
583 195 607 267 607 365 _c
607 463 583 534 537 580 _c
490 625 416 648 316 648 _c
197 648 _l
98 729 _m
301 729 _l
442 729 546 699 612 641 _c
678 582 711 490 711 365 _c
711 239 677 147 611 88 _c
545 29 441 0 301 0 _c
98 0 _l
98 729 _l
_cl}_d
/E{632 0 98 0 568 729 _sc
98 729 _m
559 729 _l
559 646 _l
197 646 _l
197 430 _l
544 430 _l
544 347 _l
197 347 _l
197 83 _l
568 83 _l
568 0 _l
98 0 _l
98 729 _l
_cl}_d
/F{575 0 98 0 517 729 _sc
98 729 _m
517 729 _l
517 646 _l
197 646 _l
197 431 _l
486 431 _l
486 348 _l
197 348 _l
197 0 _l
98 0 _l
98 729 _l
_cl}_d
/G{{775 0 56 -13 693 742 _sc
595 104 _m
595 300 _l
434 300 _l
434 381 _l
693 381 _l
693 68 _l
655 40 613 20 567 7 _c
521 -6 472 -13 420 -13 _c
306 -13 216 20 152 86 _c
88 152 56 245 56 364 _c
56 482 88 575 152 642 _c
216 708 306 742 420 742 _c
467 742 512 736 555 724 _c
598 712 638 695 674 673 _c
674 568 _l
637 598 598 621 557 637 _c
516 653 473 661 428 661 _c
}_e{338 661 271 636 227 586 _c
182 536 160 462 160 364 _c
160 265 182 191 227 141 _c
271 91 338 67 428 67 _c
462 67 493 70 521 76 _c
549 82 573 91 595 104 _c
_cl}_e}_d
/K{656 0 98 0 677 729 _sc
98 729 _m
197 729 _l
197 421 _l
524 729 _l
651 729 _l
289 389 _l
677 0 _l
547 0 _l
197 351 _l
197 0 _l
98 0 _l
98 729 _l
_cl}_d
/L{557 0 98 0 552 729 _sc
98 729 _m
197 729 _l
197 83 _l
552 83 _l
552 0 _l
98 0 _l
98 729 _l
_cl}_d
/N{748 0 98 0 650 729 _sc
98 729 _m
231 729 _l
554 119 _l
554 729 _l
650 729 _l
650 0 _l
517 0 _l
194 610 _l
194 0 _l
98 0 _l
98 729 _l
_cl}_d
/P{603 0 98 0 569 729 _sc
197 648 _m
197 374 _l
321 374 _l
367 374 402 385 427 409 _c
452 433 465 467 465 511 _c
465 555 452 588 427 612 _c
402 636 367 648 321 648 _c
197 648 _l
98 729 _m
321 729 _l
402 729 464 710 506 673 _c
548 636 569 582 569 511 _c
569 439 548 384 506 348 _c
464 311 402 293 321 293 _c
197 293 _l
197 0 _l
98 0 _l
98 729 _l
_cl}_d
/S{{635 0 66 -13 579 742 _sc
535 705 _m
535 609 _l
497 627 462 640 429 649 _c
395 657 363 662 333 662 _c
279 662 237 651 208 631 _c
179 610 165 580 165 542 _c
165 510 174 485 194 469 _c
213 452 250 439 304 429 _c
364 417 _l
437 403 491 378 526 343 _c
561 307 579 260 579 201 _c
579 130 555 77 508 41 _c
460 5 391 -13 300 -13 _c
265 -13 228 -9 189 -2 _c
}_e{150 5 110 16 69 32 _c
69 134 _l
109 111 148 94 186 83 _c
224 71 262 66 300 66 _c
356 66 399 77 430 99 _c
460 121 476 152 476 194 _c
476 230 465 258 443 278 _c
421 298 385 313 335 323 _c
275 335 _l
201 349 148 372 115 404 _c
82 435 66 478 66 534 _c
66 598 88 649 134 686 _c
179 723 242 742 322 742 _c
356 742 390 739 426 733 _c
461 727 497 717 535 705 _c
}_e{_cl}_e}_d
/W{989 0 33 0 956 729 _sc
33 729 _m
133 729 _l
286 113 _l
439 729 _l
550 729 _l
703 113 _l
856 729 _l
956 729 _l
773 0 _l
649 0 _l
495 633 _l
340 0 _l
216 0 _l
33 729 _l
_cl}_d
/a{{613 0 60 -13 522 560 _sc
343 275 _m
270 275 220 266 192 250 _c
164 233 150 205 150 165 _c
150 133 160 107 181 89 _c
202 70 231 61 267 61 _c
317 61 357 78 387 114 _c
417 149 432 196 432 255 _c
432 275 _l
343 275 _l
522 312 _m
522 0 _l
432 0 _l
432 83 _l
411 49 385 25 355 10 _c
325 -5 287 -13 243 -13 _c
187 -13 142 2 109 33 _c
76 64 60 106 60 159 _c
}_e{60 220 80 266 122 298 _c
163 329 224 345 306 345 _c
432 345 _l
432 354 _l
432 395 418 427 391 450 _c
364 472 326 484 277 484 _c
245 484 215 480 185 472 _c
155 464 127 453 100 439 _c
100 522 _l
132 534 164 544 195 550 _c
226 556 256 560 286 560 _c
365 560 424 539 463 498 _c
502 457 522 395 522 312 _c
_cl}_e}_d
/e{{615 0 55 -13 562 560 _sc
562 296 _m
562 252 _l
149 252 _l
153 190 171 142 205 110 _c
238 78 284 62 344 62 _c
378 62 412 66 444 74 _c
476 82 509 95 541 113 _c
541 28 _l
509 14 476 3 442 -3 _c
408 -9 373 -13 339 -13 _c
251 -13 182 12 131 62 _c
80 112 55 181 55 268 _c
55 357 79 428 127 481 _c
175 533 241 560 323 560 _c
397 560 455 536 498 489 _c
}_e{540 441 562 377 562 296 _c
472 322 _m
471 371 457 410 431 440 _c
404 469 368 484 324 484 _c
274 484 234 469 204 441 _c
174 413 156 373 152 322 _c
472 322 _l
_cl}_e}_d
/m{{974 0 91 0 889 560 _sc
520 442 _m
542 482 569 511 600 531 _c
631 550 668 560 711 560 _c
767 560 811 540 842 500 _c
873 460 889 403 889 330 _c
889 0 _l
799 0 _l
799 327 _l
799 379 789 418 771 444 _c
752 469 724 482 686 482 _c
639 482 602 466 575 435 _c
548 404 535 362 535 309 _c
535 0 _l
445 0 _l
445 327 _l
445 379 435 418 417 444 _c
398 469 369 482 331 482 _c
}_e{285 482 248 466 221 435 _c
194 404 181 362 181 309 _c
181 0 _l
91 0 _l
91 547 _l
181 547 _l
181 462 _l
201 495 226 520 255 536 _c
283 552 317 560 357 560 _c
397 560 430 550 458 530 _c
486 510 506 480 520 442 _c
_cl}_e}_d
/n{634 0 91 0 549 560 _sc
549 330 _m
549 0 _l
459 0 _l
459 327 _l
459 379 448 417 428 443 _c
408 469 378 482 338 482 _c
289 482 251 466 223 435 _c
195 404 181 362 181 309 _c
181 0 _l
91 0 _l
91 547 _l
181 547 _l
181 462 _l
202 494 227 519 257 535 _c
286 551 320 560 358 560 _c
420 560 468 540 500 501 _c
532 462 549 405 549 330 _c
_cl}_d
end readonly def

/BuildGlyph
 {exch begin
 CharStrings exch
 2 copy known not{pop /.notdef}if
 true 3 1 roll get exec
 end}_d

/BuildChar {
 1 index /Encoding get exch get
 1 index /BuildGlyph get exec
}_d

FontName currentdict end definefont pop
%!PS-Adobe-3.0 Resource-Font
%%Title: DejaVu Sans Bold
%%Copyright: Copyright (c) 2003 by Bitstream, Inc. All Rights Reserved. Copyright (c) 2006 by Tavmjong Bah. All Rights Reserved. DejaVu changes are in public domain 
%%Creator: Converted from TrueType to type 3 by PPR
25 dict begin
/_d{bind def}bind def
/_m{moveto}_d
/_l{lineto}_d
/_cl{closepath eofill}_d
/_c{curveto}_d
/_sc{7 -1 roll{setcachedevice}{pop pop pop pop pop pop}ifelse}_d
/_e{exec}_d
/FontName /DejaVuSans-Bold def
/PaintType 0 def
/FontMatrix[.001 0 0 .001 0 0]def
/FontBBox[-1069 -415 1975 1174]def
/FontType 3 def
/Encoding [ /space /parenleft /parenright /hyphen /A /C /F /K /M /S /T /a /c /e /g /h /i /k /l /m /n /o /p /r /s /t /u ] def
/FontInfo 10 dict dup begin
/FamilyName (DejaVu Sans) def
/FullName (DejaVu Sans Bold) def
/Notice (Copyright (c) 2003 by Bitstream, Inc. All Rights Reserved. Copyright (c) 2006 by Tavmjong Bah. All Rights Reserved. DejaVu changes are in public domain ) def
/Weight (Bold) def
/Version (Version 2.35) def
/ItalicAngle 0.0 def
/isFixedPitch false def
/UnderlinePosition -130 def
/UnderlineThickness 90 def
end readonly def
/CharStrings 27 dict dup begin
/space{348 0 0 0 0 0 _sc
}_d
/parenleft{457 0 86 -131 377 759 _sc
377 -131 _m
232 -131 _l
182 -50 145 26 121 98 _c
97 170 86 241 86 313 _c
86 384 98 456 122 529 _c
146 602 182 679 232 759 _c
377 759 _l
335 681 303 606 283 532 _c
262 458 252 386 252 314 _c
252 242 262 169 283 95 _c
303 21 335 -53 377 -131 _c
_cl}_d
/parenright{457 0 80 -131 371 759 _sc
80 -131 _m
122 -53 153 21 174 95 _c
194 169 205 242 205 314 _c
205 386 194 458 174 532 _c
153 606 122 681 80 759 _c
225 759 _l
274 679 311 602 335 529 _c
359 456 371 384 371 313 _c
371 241 359 170 335 98 _c
311 26 275 -50 225 -131 _c
80 -131 _l
_cl}_d
/hyphen{415 0 54 217 361 359 _sc
54 359 _m
361 359 _l
361 217 _l
54 217 _l
54 359 _l
_cl}_d
/A{774 0 5 0 769 729 _sc
534 133 _m
240 133 _l
194 0 _l
5 0 _l
275 729 _l
499 729 _l
769 0 _l
580 0 _l
534 133 _l
287 268 _m
487 268 _l
387 558 _l
287 268 _l
_cl}_d
/C{{734 0 50 -13 670 742 _sc
670 40 _m
635 22 599 8 562 0 _c
524 -8 485 -13 445 -13 _c
323 -13 227 20 156 88 _c
85 155 50 247 50 364 _c
50 480 85 572 156 640 _c
227 708 323 742 445 742 _c
485 742 524 737 562 728 _c
599 719 635 706 670 688 _c
670 537 _l
635 561 601 578 567 589 _c
533 600 497 606 460 606 _c
392 606 339 584 301 541 _c
263 498 244 439 244 364 _c
}_e{244 288 263 229 301 186 _c
339 143 392 122 460 122 _c
497 122 533 127 567 138 _c
601 149 635 167 670 191 _c
670 40 _l
_cl}_e}_d
/F{683 0 92 0 599 729 _sc
92 729 _m
599 729 _l
599 587 _l
280 587 _l
280 451 _l
580 451 _l
580 309 _l
280 309 _l
280 0 _l
92 0 _l
92 729 _l
_cl}_d
/K{775 0 92 0 805 729 _sc
92 729 _m
280 729 _l
280 463 _l
551 729 _l
769 729 _l
418 384 _l
805 0 _l
570 0 _l
280 287 _l
280 0 _l
92 0 _l
92 729 _l
_cl}_d
/M{995 0 92 0 903 729 _sc
92 729 _m
331 729 _l
497 339 _l
664 729 _l
903 729 _l
903 0 _l
725 0 _l
725 533 _l
557 140 _l
438 140 _l
270 533 _l
270 0 _l
92 0 _l
92 729 _l
_cl}_d
/S{{720 0 72 -13 647 742 _sc
599 706 _m
599 552 _l
559 570 520 583 482 592 _c
444 601 408 606 374 606 _c
329 606 296 599 274 587 _c
252 575 242 556 242 530 _c
242 510 249 494 264 484 _c
278 473 305 464 343 456 _c
423 440 _l
503 424 561 399 595 366 _c
629 332 647 285 647 224 _c
647 144 623 84 575 45 _c
527 6 455 -13 357 -13 _c
311 -13 264 -8 218 0 _c
}_e{171 8 124 20 78 38 _c
78 197 _l
124 172 169 153 213 141 _c
256 128 298 122 339 122 _c
379 122 411 128 433 142 _c
455 156 466 175 466 201 _c
466 223 458 241 443 253 _c
428 265 399 277 355 287 _c
282 303 _l
209 319 156 344 122 378 _c
88 412 72 458 72 516 _c
72 588 95 644 142 683 _c
188 722 256 742 344 742 _c
384 742 425 739 467 733 _c
509 727 553 718 599 706 _c
}_e{_cl}_e}_d
/T{682 0 5 0 677 729 _sc
5 729 _m
677 729 _l
677 587 _l
435 587 _l
435 0 _l
247 0 _l
247 587 _l
5 587 _l
5 729 _l
_cl}_d
/a{{675 0 43 -13 596 560 _sc
329 246 _m
292 246 264 239 246 227 _c
228 215 219 197 219 173 _c
219 151 226 133 241 121 _c
256 108 277 102 303 102 _c
336 102 364 113 386 137 _c
408 161 420 190 420 226 _c
420 246 _l
329 246 _l
596 312 _m
596 0 _l
420 0 _l
420 81 _l
396 47 370 23 341 9 _c
311 -5 276 -13 234 -13 _c
177 -13 131 3 96 36 _c
60 68 43 111 43 164 _c
}_e{43 228 65 275 109 305 _c
153 335 222 350 317 350 _c
420 350 _l
420 364 _l
420 391 409 411 387 424 _c
365 437 331 444 285 444 _c
247 444 212 440 180 432 _c
148 424 118 413 91 399 _c
91 532 _l
128 541 165 548 203 553 _c
241 557 279 560 317 560 _c
415 560 486 540 530 501 _c
574 462 596 399 596 312 _c
_cl}_e}_d
/c{{593 0 43 -13 526 560 _sc
526 530 _m
526 387 _l
502 403 478 415 454 423 _c
430 431 405 435 380 435 _c
331 435 293 420 266 392 _c
238 364 225 324 225 273 _c
225 221 238 181 266 153 _c
293 125 331 111 380 111 _c
407 111 433 115 458 123 _c
482 131 505 143 526 159 _c
526 16 _l
498 6 470 -1 442 -6 _c
414 -10 386 -13 358 -13 _c
259 -13 182 12 126 62 _c
}_e{70 112 43 183 43 273 _c
43 363 70 433 126 484 _c
182 534 259 560 358 560 _c
386 560 414 557 442 552 _c
470 547 498 540 526 530 _c
_cl}_e}_d
/e{{678 0 43 -13 630 560 _sc
630 275 _m
630 225 _l
221 225 _l
225 184 240 153 266 133 _c
291 112 326 102 372 102 _c
408 102 446 107 485 118 _c
523 129 563 146 604 168 _c
604 33 _l
562 17 521 6 480 -1 _c
438 -9 397 -13 356 -13 _c
257 -13 180 12 125 62 _c
70 112 43 182 43 273 _c
43 362 70 432 124 483 _c
178 534 252 560 346 560 _c
432 560 500 534 552 482 _c
}_e{604 430 630 361 630 275 _c
450 333 _m
450 366 440 393 421 413 _c
401 433 376 444 345 444 _c
311 444 283 434 262 415 _c
241 396 228 369 223 333 _c
450 333 _l
_cl}_e}_d
/g{{716 0 45 -215 632 559 _sc
456 93 _m
432 61 405 37 376 22 _c
347 7 314 0 276 0 _c
209 0 154 26 110 79 _c
66 131 45 198 45 280 _c
45 361 66 428 110 480 _c
154 532 209 559 276 559 _c
314 559 347 551 376 536 _c
405 521 432 498 456 466 _c
456 547 _l
632 547 _l
632 55 _l
632 -32 604 -99 548 -145 _c
492 -191 412 -215 307 -215 _c
273 -215 240 -212 208 -207 _c
}_e{176 -201 144 -193 112 -183 _c
112 -47 _l
142 -64 172 -77 202 -86 _c
231 -94 260 -99 290 -99 _c
347 -99 389 -86 416 -61 _c
442 -36 456 2 456 55 _c
456 93 _l
341 433 _m
305 433 276 419 256 393 _c
236 366 226 328 226 280 _c
226 230 235 192 255 166 _c
275 140 303 127 341 127 _c
377 127 406 140 426 167 _c
446 193 456 231 456 280 _c
456 328 446 366 426 393 _c
}_e{406 419 377 433 341 433 _c
_cl}_e}_d
/h{712 0 84 0 634 760 _sc
634 333 _m
634 0 _l
458 0 _l
458 54 _l
458 254 _l
458 302 457 334 455 352 _c
453 370 449 383 444 392 _c
437 403 428 412 416 418 _c
404 424 390 428 376 428 _c
339 428 310 414 290 386 _c
269 358 259 319 259 269 _c
259 0 _l
84 0 _l
84 760 _l
259 760 _l
259 467 _l
285 499 312 522 342 537 _c
372 552 405 560 441 560 _c
504 560 552 540 585 502 _c
617 463 634 407 634 333 _c
_cl}_d
/i{343 0 84 0 259 760 _sc
84 547 _m
259 547 _l
259 0 _l
84 0 _l
84 547 _l
84 760 _m
259 760 _l
259 617 _l
84 617 _l
84 760 _l
_cl}_d
/k{665 0 84 0 684 760 _sc
84 760 _m
259 760 _l
259 346 _l
460 547 _l
663 547 _l
396 296 _l
684 0 _l
472 0 _l
259 228 _l
259 0 _l
84 0 _l
84 760 _l
_cl}_d
/l{343 0 84 0 259 760 _sc
84 760 _m
259 760 _l
259 0 _l
84 0 _l
84 760 _l
_cl}_d
/m{{1042 0 83 0 963 560 _sc
591 456 _m
613 490 639 515 669 533 _c
699 551 733 560 770 560 _c
832 560 880 540 913 502 _c
946 463 963 407 963 333 _c
963 0 _l
787 0 _l
787 285 _l
787 289 788 294 788 298 _c
788 302 788 309 788 318 _c
788 356 782 384 771 402 _c
759 419 741 428 716 428 _c
682 428 657 414 639 387 _c
621 359 611 320 611 269 _c
611 0 _l
435 0 _l
435 285 _l
}_e{435 345 429 384 419 402 _c
409 419 390 428 364 428 _c
330 428 304 414 286 387 _c
268 359 259 320 259 269 _c
259 0 _l
83 0 _l
83 547 _l
259 547 _l
259 467 _l
280 497 305 520 333 536 _c
361 552 391 560 425 560 _c
462 560 495 550 524 532 _c
553 514 575 488 591 456 _c
_cl}_e}_d
/n{712 0 84 0 634 560 _sc
634 333 _m
634 0 _l
458 0 _l
458 54 _l
458 255 _l
458 302 457 334 455 352 _c
453 370 449 383 444 392 _c
437 403 428 412 416 418 _c
404 424 390 428 376 428 _c
339 428 310 414 290 386 _c
269 358 259 319 259 269 _c
259 0 _l
84 0 _l
84 547 _l
259 547 _l
259 467 _l
285 499 312 522 342 537 _c
372 552 405 560 441 560 _c
504 560 552 540 585 502 _c
617 463 634 407 634 333 _c
_cl}_d
/o{687 0 43 -13 644 560 _sc
344 435 _m
305 435 275 421 255 393 _c
235 365 225 325 225 273 _c
225 220 235 180 255 152 _c
275 124 305 111 344 111 _c
382 111 411 124 431 152 _c
451 180 462 220 462 273 _c
462 325 451 365 431 393 _c
411 421 382 435 344 435 _c
344 560 _m
438 560 511 534 564 484 _c
617 433 644 363 644 273 _c
644 183 617 112 564 62 _c
511 12 438 -13 344 -13 _c
250 -13 176 12 123 62 _c
69 112 43 183 43 273 _c
43 363 69 433 123 484 _c
176 534 250 560 344 560 _c
_cl}_d
/p{{716 0 84 -207 671 560 _sc
259 79 _m
259 -207 _l
84 -207 _l
84 547 _l
259 547 _l
259 467 _l
283 499 309 522 339 537 _c
368 552 402 560 440 560 _c
507 560 562 533 606 479 _c
649 425 671 357 671 273 _c
671 188 649 119 606 66 _c
562 13 507 -13 440 -13 _c
402 -13 368 -5 339 9 _c
309 23 283 47 259 79 _c
375 433 _m
337 433 309 419 289 392 _c
269 364 259 325 259 273 _c
}_e{259 221 269 181 289 154 _c
309 126 337 113 375 113 _c
412 113 440 126 460 154 _c
480 181 490 221 490 273 _c
490 325 480 364 460 392 _c
440 419 412 433 375 433 _c
_cl}_e}_d
/r{493 0 84 0 490 560 _sc
490 398 _m
474 405 459 410 444 414 _c
429 417 414 419 399 419 _c
354 419 319 404 295 376 _c
271 347 259 306 259 252 _c
259 0 _l
84 0 _l
84 547 _l
259 547 _l
259 457 _l
281 493 306 519 336 535 _c
365 551 400 560 441 560 _c
447 560 453 559 460 559 _c
466 559 476 558 490 556 _c
490 398 _l
_cl}_d
/s{{595 0 52 -13 548 560 _sc
511 530 _m
511 397 _l
473 412 437 424 403 432 _c
368 440 335 444 304 444 _c
270 444 246 439 230 431 _c
214 423 206 410 206 393 _c
206 379 212 368 224 361 _c
236 353 258 348 290 344 _c
321 340 _l
410 328 470 310 501 284 _c
532 258 548 217 548 161 _c
548 103 526 59 483 30 _c
440 1 376 -13 291 -13 _c
255 -13 217 -10 179 -5 _c
}_e{140 0 100 8 60 20 _c
60 153 _l
94 135 130 122 167 114 _c
203 106 241 102 279 102 _c
313 102 338 106 356 116 _c
373 125 382 139 382 158 _c
382 174 376 185 364 193 _c
352 201 328 207 293 211 _c
262 215 _l
184 224 130 242 99 269 _c
67 295 52 335 52 389 _c
52 447 71 490 111 518 _c
151 546 212 560 294 560 _c
326 560 359 557 395 552 _c
431 547 469 540 511 530 _c
}_e{_cl}_e}_d
/t{478 0 13 0 455 702 _sc
275 702 _m
275 547 _l
455 547 _l
455 422 _l
275 422 _l
275 190 _l
275 164 280 147 290 138 _c
300 129 320 125 350 125 _c
440 125 _l
440 0 _l
290 0 _l
221 0 172 14 143 43 _c
114 71 100 120 100 190 _c
100 422 _l
13 422 _l
13 547 _l
100 547 _l
100 702 _l
275 702 _l
_cl}_d
/u{{712 0 78 -13 628 547 _sc
78 213 _m
78 547 _l
254 547 _l
254 492 _l
254 462 253 425 253 380 _c
253 335 253 305 253 291 _c
253 247 254 215 256 196 _c
258 176 262 162 268 154 _c
275 142 284 133 296 127 _c
307 121 320 118 336 118 _c
372 118 401 132 422 160 _c
442 188 453 227 453 277 _c
453 547 _l
628 547 _l
628 0 _l
453 0 _l
453 79 _l
427 47 399 23 369 9 _c
}_e{339 -5 307 -13 272 -13 _c
208 -13 160 6 127 44 _c
94 82 78 139 78 213 _c
_cl}_e}_d
end readonly def

/BuildGlyph
 {exch begin
 CharStrings exch
 2 copy known not{pop /.notdef}if
 true 3 1 roll get exec
 end}_d

/BuildChar {
 1 index /Encoding get exch get
 1 index /BuildGlyph get exec
}_d

FontName currentdict end definefont pop
end
%%EndProlog
mpldict begin
-270 270 translate
1152 252 0 0 clipbox
gsave
0 0 m
1152 0 l
1152 252 l
0 252 l
cl
1.000 setgray
fill
grestore
gsave
48.995 97.556856 m
1128.366073 97.556856 l
1128.366073 233.38 l
48.995 233.38 l
cl
1.000 setgray
fill
grestore
0.800 setlinewidth
1 setlinejoin
0 setlinecap
[] 0 setdash
0.000 setgray
gsave
/o {
gsave
newpath
translate
0.8 setlinewidth
1 setlinejoin
0 setlinecap
0 0 m
0 -3.5 l

gsave
0.000 setgray
fill
grestore
stroke
grestore
} bind def
75.9793 97.5569 o
grestore
/DejaVuSans findfont
14.000 scalefont
setfont
gsave
52.412482 45.396492 translate
30.000000 rotate
0.000000 0.000000 m /S glyphshow
8.886719 0.000000 m /E glyphshow
17.732422 0.000000 m /K glyphshow
26.897461 0.000000 m /hyphen glyphshow
31.949219 0.000000 m /F glyphshow
40.001953 0.000000 m /hyphen glyphshow
45.053711 0.000000 m /W glyphshow
grestore
gsave
/o {
gsave
newpath
translate
0.8 setlinewidth
1 setlinejoin
0 setlinecap
0 0 m
0 -3.5 l

gsave
0.000 setgray
fill
grestore
stroke
grestore
} bind def
129.948 97.5569 o
grestore
gsave
101.847934 40.162117 translate
30.000000 rotate
0.000000 0.000000 m /S glyphshow
8.886719 0.000000 m /E glyphshow
17.732422 0.000000 m /K glyphshow
26.897461 0.000000 m /hyphen glyphshow
31.949219 0.000000 m /N glyphshow
42.421875 0.000000 m /F glyphshow
50.474609 0.000000 m /hyphen glyphshow
55.526367 0.000000 m /W glyphshow
grestore
gsave
/o {
gsave
newpath
translate
0.8 setlinewidth
1 setlinejoin
0 setlinecap
0 0 m
0 -3.5 l

gsave
0.000 setgray
fill
grestore
stroke
grestore
} bind def
183.916 97.5569 o
grestore
gsave
163.482166 49.013679 translate
30.000000 rotate
0.000000 0.000000 m /D glyphshow
10.780273 0.000000 m /S glyphshow
19.666992 0.000000 m /hyphen glyphshow
24.718750 0.000000 m /F glyphshow
32.771484 0.000000 m /hyphen glyphshow
37.823242 0.000000 m /W glyphshow
grestore
gsave
/o {
gsave
newpath
translate
0.8 setlinewidth
1 setlinejoin
0 setlinecap
0 0 m
0 -3.5 l

gsave
0.000 setgray
fill
grestore
stroke
grestore
} bind def
237.885 97.5569 o
grestore
gsave
212.917617 43.779304 translate
30.000000 rotate
0.000000 0.000000 m /D glyphshow
10.780273 0.000000 m /S glyphshow
19.666992 0.000000 m /hyphen glyphshow
24.718750 0.000000 m /N glyphshow
35.191406 0.000000 m /F glyphshow
43.244141 0.000000 m /hyphen glyphshow
48.295898 0.000000 m /W glyphshow
grestore
gsave
/o {
gsave
newpath
translate
0.8 setlinewidth
1 setlinejoin
0 setlinecap
0 0 m
0 -3.5 l

gsave
0.000 setgray
fill
grestore
stroke
grestore
} bind def
291.853 97.5569 o
grestore
gsave
267.454500 44.435554 translate
30.000000 rotate
0.000000 0.000000 m /D glyphshow
10.780273 0.000000 m /B glyphshow
20.384766 0.000000 m /P glyphshow
28.827148 0.000000 m /hyphen glyphshow
33.878906 0.000000 m /F glyphshow
41.931641 0.000000 m /hyphen glyphshow
46.983398 0.000000 m /W glyphshow
grestore
gsave
/o {
gsave
newpath
translate
0.8 setlinewidth
1 setlinejoin
0 setlinecap
0 0 m
0 -3.5 l

gsave
0.000 setgray
fill
grestore
stroke
grestore
} bind def
345.822 97.5569 o
grestore
gsave
316.889952 39.201179 translate
30.000000 rotate
0.000000 0.000000 m /D glyphshow
10.780273 0.000000 m /B glyphshow
20.384766 0.000000 m /P glyphshow
28.827148 0.000000 m /hyphen glyphshow
33.878906 0.000000 m /N glyphshow
44.351562 0.000000 m /F glyphshow
52.404297 0.000000 m /hyphen glyphshow
57.456055 0.000000 m /W glyphshow
grestore
gsave
/o {
gsave
newpath
translate
0.8 setlinewidth
1 setlinejoin
0 setlinecap
0 0 m
0 -3.5 l

gsave
0.000 setgray
fill
grestore
stroke
grestore
} bind def
399.791 97.5569 o
grestore
gsave
372.536430 41.138679 translate
30.000000 rotate
0.000000 0.000000 m /L glyphshow
7.799805 0.000000 m /P glyphshow
16.242188 0.000000 m /A glyphshow
25.819336 0.000000 m /B glyphshow
35.423828 0.000000 m /hyphen glyphshow
40.475586 0.000000 m /F glyphshow
48.528320 0.000000 m /hyphen glyphshow
53.580078 0.000000 m /W glyphshow
grestore
gsave
/o {
gsave
newpath
translate
0.8 setlinewidth
1 setlinejoin
0 setlinecap
0 0 m
0 -3.5 l

gsave
0.000 setgray
fill
grestore
stroke
grestore
} bind def
453.759 97.5569 o
grestore
gsave
421.971882 35.904304 translate
30.000000 rotate
0.000000 0.000000 m /L glyphshow
7.799805 0.000000 m /P glyphshow
16.242188 0.000000 m /A glyphshow
25.819336 0.000000 m /B glyphshow
35.423828 0.000000 m /hyphen glyphshow
40.475586 0.000000 m /N glyphshow
50.948242 0.000000 m /F glyphshow
59.000977 0.000000 m /hyphen glyphshow
64.052734 0.000000 m /W glyphshow
grestore
gsave
/o {
gsave
newpath
translate
0.8 setlinewidth
1 setlinejoin
0 setlinecap
0 0 m
0 -3.5 l

gsave
0.000 setgray
fill
grestore
stroke
grestore
} bind def
507.728 97.5569 o
grestore
gsave
486.779285 48.419929 translate
30.000000 rotate
0.000000 0.000000 m /S glyphshow
8.886719 0.000000 m /E glyphshow
17.732422 0.000000 m /K glyphshow
26.897461 0.000000 m /hyphen glyphshow
31.949219 0.000000 m /F glyphshow
40.001953 0.000000 m /hyphen glyphshow
45.053711 0.000000 m /L glyphshow
grestore
gsave
/o {
gsave
newpath
translate
0.8 setlinewidth
1 setlinejoin
0 setlinecap
0 0 m
0 -3.5 l

gsave
0.000 setgray
fill
grestore
stroke
grestore
} bind def
561.696 97.5569 o
grestore
gsave
536.214737 43.185554 translate
30.000000 rotate
0.000000 0.000000 m /S glyphshow
8.886719 0.000000 m /E glyphshow
17.732422 0.000000 m /K glyphshow
26.897461 0.000000 m /hyphen glyphshow
31.949219 0.000000 m /N glyphshow
42.421875 0.000000 m /F glyphshow
50.474609 0.000000 m /hyphen glyphshow
55.526367 0.000000 m /L glyphshow
grestore
gsave
/o {
gsave
newpath
translate
0.8 setlinewidth
1 setlinejoin
0 setlinecap
0 0 m
0 -3.5 l

gsave
0.000 setgray
fill
grestore
stroke
grestore
} bind def
615.665 97.5569 o
grestore
gsave
597.848968 52.037117 translate
30.000000 rotate
0.000000 0.000000 m /D glyphshow
10.780273 0.000000 m /S glyphshow
19.666992 0.000000 m /hyphen glyphshow
24.718750 0.000000 m /F glyphshow
32.771484 0.000000 m /hyphen glyphshow
37.823242 0.000000 m /L glyphshow
grestore
gsave
/o {
gsave
newpath
translate
0.8 setlinewidth
1 setlinejoin
0 setlinecap
0 0 m
0 -3.5 l

gsave
0.000 setgray
fill
grestore
stroke
grestore
} bind def
669.633 97.5569 o
grestore
gsave
647.284420 46.802742 translate
30.000000 rotate
0.000000 0.000000 m /D glyphshow
10.780273 0.000000 m /S glyphshow
19.666992 0.000000 m /hyphen glyphshow
24.718750 0.000000 m /N glyphshow
35.191406 0.000000 m /F glyphshow
43.244141 0.000000 m /hyphen glyphshow
48.295898 0.000000 m /L glyphshow
grestore
gsave
/o {
gsave
newpath
translate
0.8 setlinewidth
1 setlinejoin
0 setlinecap
0 0 m
0 -3.5 l

gsave
0.000 setgray
fill
grestore
stroke
grestore
} bind def
723.602 97.5569 o
grestore
gsave
701.821303 47.458992 translate
30.000000 rotate
0.000000 0.000000 m /D glyphshow
10.780273 0.000000 m /B glyphshow
20.384766 0.000000 m /P glyphshow
28.827148 0.000000 m /hyphen glyphshow
33.878906 0.000000 m /F glyphshow
41.931641 0.000000 m /hyphen glyphshow
46.983398 0.000000 m /L glyphshow
grestore
gsave
/o {
gsave
newpath
translate
0.8 setlinewidth
1 setlinejoin
0 setlinecap
0 0 m
0 -3.5 l

gsave
0.000 setgray
fill
grestore
stroke
grestore
} bind def
777.57 97.5569 o
grestore
gsave
751.256755 42.224617 translate
30.000000 rotate
0.000000 0.000000 m /D glyphshow
10.780273 0.000000 m /B glyphshow
20.384766 0.000000 m /P glyphshow
28.827148 0.000000 m /hyphen glyphshow
33.878906 0.000000 m /N glyphshow
44.351562 0.000000 m /F glyphshow
52.404297 0.000000 m /hyphen glyphshow
57.456055 0.000000 m /L glyphshow
grestore
gsave
/o {
gsave
newpath
translate
0.8 setlinewidth
1 setlinejoin
0 setlinecap
0 0 m
0 -3.5 l

gsave
0.000 setgray
fill
grestore
stroke
grestore
} bind def
831.539 97.5569 o
grestore
gsave
806.903233 44.162117 translate
30.000000 rotate
0.000000 0.000000 m /L glyphshow
7.799805 0.000000 m /P glyphshow
16.242188 0.000000 m /A glyphshow
25.819336 0.000000 m /B glyphshow
35.423828 0.000000 m /hyphen glyphshow
40.475586 0.000000 m /F glyphshow
48.528320 0.000000 m /hyphen glyphshow
53.580078 0.000000 m /L glyphshow
grestore
gsave
/o {
gsave
newpath
translate
0.8 setlinewidth
1 setlinejoin
0 setlinecap
0 0 m
0 -3.5 l

gsave
0.000 setgray
fill
grestore
stroke
grestore
} bind def
885.508 97.5569 o
grestore
gsave
856.338685 38.927742 translate
30.000000 rotate
0.000000 0.000000 m /L glyphshow
7.799805 0.000000 m /P glyphshow
16.242188 0.000000 m /A glyphshow
25.819336 0.000000 m /B glyphshow
35.423828 0.000000 m /hyphen glyphshow
40.475586 0.000000 m /N glyphshow
50.948242 0.000000 m /F glyphshow
59.000977 0.000000 m /hyphen glyphshow
64.052734 0.000000 m /L glyphshow
grestore
gsave
/o {
gsave
newpath
translate
0.8 setlinewidth
1 setlinejoin
0 setlinecap
0 0 m
0 -3.5 l

gsave
0.000 setgray
fill
grestore
stroke
grestore
} bind def
939.476 97.5569 o
grestore
gsave
913.852530 43.021492 translate
30.000000 rotate
0.000000 0.000000 m /G glyphshow
10.848633 0.000000 m /m glyphshow
24.486328 0.000000 m /e glyphshow
33.099609 0.000000 m /a glyphshow
41.678711 0.000000 m /n glyphshow
50.551758 0.000000 m /hyphen glyphshow
55.603516 0.000000 m /F glyphshow
grestore
gsave
/o {
gsave
newpath
translate
0.8 setlinewidth
1 setlinejoin
0 setlinecap
0 0 m
0 -3.5 l

gsave
0.000 setgray
fill
grestore
stroke
grestore
} bind def
993.445 97.5569 o
grestore
gsave
963.287982 37.787117 translate
30.000000 rotate
0.000000 0.000000 m /G glyphshow
10.848633 0.000000 m /m glyphshow
24.486328 0.000000 m /e glyphshow
33.099609 0.000000 m /a glyphshow
41.678711 0.000000 m /n glyphshow
50.551758 0.000000 m /hyphen glyphshow
55.603516 0.000000 m /N glyphshow
66.076172 0.000000 m /F glyphshow
grestore
gsave
/o {
gsave
newpath
translate
0.8 setlinewidth
1 setlinejoin
0 setlinecap
0 0 m
0 -3.5 l

gsave
0.000 setgray
fill
grestore
stroke
grestore
} bind def
1047.41 97.5569 o
grestore
gsave
1019.279517 40.123054 translate
30.000000 rotate
0.000000 0.000000 m /G glyphshow
10.848633 0.000000 m /m glyphshow
24.486328 0.000000 m /e glyphshow
33.099609 0.000000 m /a glyphshow
41.678711 0.000000 m /n glyphshow
50.551758 0.000000 m /hyphen glyphshow
55.603516 0.000000 m /W glyphshow
grestore
gsave
/o {
gsave
newpath
translate
0.8 setlinewidth
1 setlinejoin
0 setlinecap
0 0 m
0 -3.5 l

gsave
0.000 setgray
fill
grestore
stroke
grestore
} bind def
1101.38 97.5569 o
grestore
gsave
1075.866444 43.146492 translate
30.000000 rotate
0.000000 0.000000 m /G glyphshow
10.848633 0.000000 m /m glyphshow
24.486328 0.000000 m /e glyphshow
33.099609 0.000000 m /a glyphshow
41.678711 0.000000 m /n glyphshow
50.551758 0.000000 m /hyphen glyphshow
55.603516 0.000000 m /L glyphshow
grestore
/DejaVuSans-Bold findfont
14.000 scalefont
setfont
gsave
452.852412 18.746793 translate
0.000000 rotate
0.000000 0.000000 m /A glyphshow
10.834961 0.000000 m /p glyphshow
20.856445 0.000000 m /p glyphshow
30.877930 0.000000 m /r glyphshow
37.782227 0.000000 m /o glyphshow
47.400391 0.000000 m /a glyphshow
56.847656 0.000000 m /c glyphshow
65.146484 0.000000 m /h glyphshow
75.113281 0.000000 m /hyphen glyphshow
80.923828 0.000000 m /M glyphshow
94.855469 0.000000 m /e glyphshow
104.350586 0.000000 m /m glyphshow
118.938477 0.000000 m /F glyphshow
128.501953 0.000000 m /e glyphshow
137.997070 0.000000 m /n glyphshow
147.963867 0.000000 m /c glyphshow
156.262695 0.000000 m /e glyphshow
165.757812 0.000000 m /hyphen glyphshow
171.568359 0.000000 m /C glyphshow
181.842773 0.000000 m /l glyphshow
186.641602 0.000000 m /o glyphshow
196.259766 0.000000 m /c glyphshow
204.558594 0.000000 m /k glyphshow
213.869141 0.000000 m /S glyphshow
223.952148 0.000000 m /e glyphshow
233.447266 0.000000 m /t glyphshow
240.139648 0.000000 m /t glyphshow
246.832031 0.000000 m /i glyphshow
251.630859 0.000000 m /n glyphshow
261.597656 0.000000 m /g glyphshow
grestore
2 setlinecap
0.690 setgray
gsave
1079 135.8 49 97.56 clipbox
48.995 97.556856 m
1128.366073 97.556856 l
stroke
grestore
0 setlinecap
0.000 setgray
gsave
/o {
gsave
newpath
translate
0.8 setlinewidth
1 setlinejoin
0 setlinecap
0 0 m
-3.5 0 l

gsave
0.000 setgray
fill
grestore
stroke
grestore
} bind def
48.995 97.5569 o
grestore
/DejaVuSans findfont
14.000 scalefont
setfont
gsave
33.088750 92.236543 translate
0.000000 rotate
0.000000 0.000000 m /zero glyphshow
grestore
2 setlinecap
0.690 setgray
gsave
1079 135.8 49 97.56 clipbox
48.995 131.672844 m
1128.366073 131.672844 l
stroke
grestore
0 setlinecap
0.000 setgray
gsave
/o {
gsave
newpath
translate
0.8 setlinewidth
1 setlinejoin
0 setlinecap
0 0 m
-3.5 0 l

gsave
0.000 setgray
fill
grestore
stroke
grestore
} bind def
48.995 131.673 o
grestore
gsave
33.088750 126.352532 translate
0.000000 rotate
0.000000 0.000000 m /two glyphshow
grestore
2 setlinecap
0.690 setgray
gsave
1079 135.8 49 97.56 clipbox
48.995 165.788832 m
1128.366073 165.788832 l
stroke
grestore
0 setlinecap
0.000 setgray
gsave
/o {
gsave
newpath
translate
0.8 setlinewidth
1 setlinejoin
0 setlinecap
0 0 m
-3.5 0 l

gsave
0.000 setgray
fill
grestore
stroke
grestore
} bind def
48.995 165.789 o
grestore
gsave
33.088750 160.468520 translate
0.000000 rotate
0.000000 0.000000 m /four glyphshow
grestore
2 setlinecap
0.690 setgray
gsave
1079 135.8 49 97.56 clipbox
48.995 199.904821 m
1128.366073 199.904821 l
stroke
grestore
0 setlinecap
0.000 setgray
gsave
/o {
gsave
newpath
translate
0.8 setlinewidth
1 setlinejoin
0 setlinecap
0 0 m
-3.5 0 l

gsave
0.000 setgray
fill
grestore
stroke
grestore
} bind def
48.995 199.905 o
grestore
gsave
33.088750 194.584508 translate
0.000000 rotate
0.000000 0.000000 m /six glyphshow
grestore
/DejaVuSans-Bold findfont
14.000 scalefont
setfont
gsave
26.182500 84.413740 translate
90.000000 rotate
0.000000 0.000000 m /T glyphshow
9.549805 0.000000 m /i glyphshow
14.348633 0.000000 m /m glyphshow
28.936523 0.000000 m /e glyphshow
38.431641 0.000000 m /space glyphshow
43.305664 0.000000 m /p glyphshow
53.327148 0.000000 m /e glyphshow
62.822266 0.000000 m /r glyphshow
69.726562 0.000000 m /space glyphshow
74.600586 0.000000 m /K glyphshow
85.449219 0.000000 m /e glyphshow
94.944336 0.000000 m /r glyphshow
101.848633 0.000000 m /n glyphshow
111.815430 0.000000 m /e glyphshow
121.310547 0.000000 m /l glyphshow
126.109375 0.000000 m /space glyphshow
130.983398 0.000000 m /parenleft glyphshow
137.381836 0.000000 m /u glyphshow
147.348633 0.000000 m /s glyphshow
155.681641 0.000000 m /parenright glyphshow
grestore
gsave
1079 135.8 49 97.56 clipbox
53.312484 97.556856 m
61.812531 97.556856 l
61.812531 226.484076 l
53.312484 226.484076 l
cl
0.078 0.161 0.322 setrgbcolor
fill
grestore
gsave
1079 135.8 49 97.56 clipbox
107.281038 97.556856 m
115.781085 97.556856 l
115.781085 198.756477 l
107.281038 198.756477 l
cl
0.078 0.161 0.322 setrgbcolor
fill
grestore
gsave
1079 135.8 49 97.56 clipbox
161.249592 97.556856 m
169.749639 97.556856 l
169.749639 226.912231 l
161.249592 226.912231 l
cl
0.078 0.161 0.322 setrgbcolor
fill
grestore
gsave
1079 135.8 49 97.56 clipbox
215.218145 97.556856 m
223.718192 97.556856 l
223.718192 198.799292 l
215.218145 198.799292 l
cl
0.078 0.161 0.322 setrgbcolor
fill
grestore
gsave
1079 135.8 49 97.56 clipbox
269.186699 97.556856 m
277.686746 97.556856 l
277.686746 202.495248 l
269.186699 202.495248 l
cl
0.078 0.161 0.322 setrgbcolor
fill
grestore
gsave
1079 135.8 49 97.56 clipbox
323.155253 97.556856 m
331.6553 97.556856 l
331.6553 173.468683 l
323.155253 173.468683 l
cl
0.078 0.161 0.322 setrgbcolor
fill
grestore
gsave
1079 135.8 49 97.56 clipbox
377.123806 97.556856 m
385.623853 97.556856 l
385.623853 201.538465 l
377.123806 201.538465 l
cl
0.078 0.161 0.322 setrgbcolor
fill
grestore
gsave
1079 135.8 49 97.56 clipbox
431.09236 97.556856 m
439.592407 97.556856 l
439.592407 173.683954 l
431.09236 173.683954 l
cl
0.078 0.161 0.322 setrgbcolor
fill
grestore
gsave
1079 135.8 49 97.56 clipbox
485.060914 97.556856 m
493.560961 97.556856 l
493.560961 166.188331 l
485.060914 166.188331 l
cl
0.078 0.161 0.322 setrgbcolor
fill
grestore
gsave
1079 135.8 49 97.56 clipbox
539.029467 97.556856 m
547.529514 97.556856 l
547.529514 152.491102 l
539.029467 152.491102 l
cl
0.078 0.161 0.322 setrgbcolor
fill
grestore
gsave
1079 135.8 49 97.56 clipbox
592.998021 97.556856 m
601.498068 97.556856 l
601.498068 166.25861 l
592.998021 166.25861 l
cl
0.078 0.161 0.322 setrgbcolor
fill
grestore
gsave
1079 135.8 49 97.56 clipbox
646.966575 97.556856 m
655.466622 97.556856 l
655.466622 152.454769 l
646.966575 152.454769 l
cl
0.078 0.161 0.322 setrgbcolor
fill
grestore
gsave
1079 135.8 49 97.56 clipbox
700.935128 97.556856 m
709.435175 97.556856 l
709.435175 151.717864 l
700.935128 151.717864 l
cl
0.078 0.161 0.322 setrgbcolor
fill
grestore
gsave
1079 135.8 49 97.56 clipbox
754.903682 97.556856 m
763.403729 97.556856 l
763.403729 138.142429 l
754.903682 138.142429 l
cl
0.078 0.161 0.322 setrgbcolor
fill
grestore
gsave
1079 135.8 49 97.56 clipbox
808.872236 97.556856 m
817.372283 97.556856 l
817.372283 154.967411 l
808.872236 154.967411 l
cl
0.078 0.161 0.322 setrgbcolor
fill
grestore
gsave
1079 135.8 49 97.56 clipbox
862.840789 97.556856 m
871.340836 97.556856 l
871.340836 137.334733 l
862.840789 137.334733 l
cl
0.078 0.161 0.322 setrgbcolor
fill
grestore
gsave
1079 135.8 49 97.56 clipbox
62.756981 97.556856 m
71.257028 97.556856 l
71.257028 216.393641 l
62.756981 216.393641 l
cl
0.200 0.400 0.800 setrgbcolor
fill
grestore
gsave
1079 135.8 49 97.56 clipbox
116.725535 97.556856 m
125.225582 97.556856 l
125.225582 188.430164 l
116.725535 188.430164 l
cl
0.200 0.400 0.800 setrgbcolor
fill
grestore
gsave
1079 135.8 49 97.56 clipbox
170.694089 97.556856 m
179.194136 97.556856 l
179.194136 224.528155 l
170.694089 224.528155 l
cl
0.200 0.400 0.800 setrgbcolor
fill
grestore
gsave
1079 135.8 49 97.56 clipbox
224.662642 97.556856 m
233.162689 97.556856 l
233.162689 196.645072 l
224.662642 196.645072 l
cl
0.200 0.400 0.800 setrgbcolor
fill
grestore
gsave
1079 135.8 49 97.56 clipbox
278.631196 97.556856 m
287.131243 97.556856 l
287.131243 198.584822 l
278.631196 198.584822 l
cl
0.200 0.400 0.800 setrgbcolor
fill
grestore
gsave
1079 135.8 49 97.56 clipbox
332.599749 97.556856 m
341.099797 97.556856 l
341.099797 170.666873 l
332.599749 170.666873 l
cl
0.200 0.400 0.800 setrgbcolor
fill
grestore
gsave
1079 135.8 49 97.56 clipbox
386.568303 97.556856 m
395.06835 97.556856 l
395.06835 198.485425 l
386.568303 198.485425 l
cl
0.200 0.400 0.800 setrgbcolor
fill
grestore
gsave
1079 135.8 49 97.56 clipbox
440.536857 97.556856 m
449.036904 97.556856 l
449.036904 170.653158 l
440.536857 170.653158 l
cl
0.200 0.400 0.800 setrgbcolor
fill
grestore
gsave
1079 135.8 49 97.56 clipbox
494.50541 97.556856 m
503.005458 97.556856 l
503.005458 159.654829 l
494.50541 159.654829 l
cl
0.200 0.400 0.800 setrgbcolor
fill
grestore
gsave
1079 135.8 49 97.56 clipbox
548.473964 97.556856 m
556.974011 97.556856 l
556.974011 146.528736 l
548.473964 146.528736 l
cl
0.200 0.400 0.800 setrgbcolor
fill
grestore
gsave
1079 135.8 49 97.56 clipbox
602.442518 97.556856 m
610.942565 97.556856 l
610.942565 164.544111 l
602.442518 164.544111 l
cl
0.200 0.400 0.800 setrgbcolor
fill
grestore
gsave
1079 135.8 49 97.56 clipbox
656.411071 97.556856 m
664.911119 97.556856 l
664.911119 150.621495 l
656.411071 150.621495 l
cl
0.200 0.400 0.800 setrgbcolor
fill
grestore
gsave
1079 135.8 49 97.56 clipbox
710.379625 97.556856 m
718.879672 97.556856 l
718.879672 149.044279 l
710.379625 149.044279 l
cl
0.200 0.400 0.800 setrgbcolor
fill
grestore
gsave
1079 135.8 49 97.56 clipbox
764.348179 97.556856 m
772.848226 97.556856 l
772.848226 135.715981 l
764.348179 135.715981 l
cl
0.200 0.400 0.800 setrgbcolor
fill
grestore
gsave
1079 135.8 49 97.56 clipbox
818.316732 97.556856 m
826.81678 97.556856 l
826.81678 148.937086 l
818.316732 148.937086 l
cl
0.200 0.400 0.800 setrgbcolor
fill
grestore
gsave
1079 135.8 49 97.56 clipbox
872.285286 97.556856 m
880.785333 97.556856 l
880.785333 135.649642 l
872.285286 135.649642 l
cl
0.200 0.400 0.800 setrgbcolor
fill
grestore
gsave
1079 135.8 49 97.56 clipbox
72.201478 97.556856 m
80.701525 97.556856 l
80.701525 213.213823 l
72.201478 213.213823 l
cl
0.678 0.761 0.922 setrgbcolor
fill
grestore
gsave
1079 135.8 49 97.56 clipbox
126.170032 97.556856 m
134.670079 97.556856 l
134.670079 185.707152 l
126.170032 185.707152 l
cl
0.678 0.761 0.922 setrgbcolor
fill
grestore
gsave
1079 135.8 49 97.56 clipbox
180.138585 97.556856 m
188.638633 97.556856 l
188.638633 223.865544 l
180.138585 223.865544 l
cl
0.678 0.761 0.922 setrgbcolor
fill
grestore
gsave
1079 135.8 49 97.56 clipbox
234.107139 97.556856 m
242.607186 97.556856 l
242.607186 196.440165 l
234.107139 196.440165 l
cl
0.678 0.761 0.922 setrgbcolor
fill
grestore
gsave
1079 135.8 49 97.56 clipbox
288.075693 97.556856 m
296.57574 97.556856 l
296.57574 197.637274 l
288.075693 197.637274 l
cl
0.678 0.761 0.922 setrgbcolor
fill
grestore
gsave
1079 135.8 49 97.56 clipbox
342.044246 97.556856 m
350.544294 97.556856 l
350.544294 170.385853 l
342.044246 170.385853 l
cl
0.678 0.761 0.922 setrgbcolor
fill
grestore
gsave
1079 135.8 49 97.56 clipbox
396.0128 97.556856 m
404.512847 97.556856 l
404.512847 197.587717 l
396.0128 197.587717 l
cl
0.678 0.761 0.922 setrgbcolor
fill
grestore
gsave
1079 135.8 49 97.56 clipbox
449.981354 97.556856 m
458.481401 97.556856 l
458.481401 170.418331 l
449.981354 170.418331 l
cl
0.678 0.761 0.922 setrgbcolor
fill
grestore
gsave
1079 135.8 49 97.56 clipbox
503.949907 97.556856 m
512.449955 97.556856 l
512.449955 158.003741 l
503.949907 158.003741 l
cl
0.678 0.761 0.922 setrgbcolor
fill
grestore
gsave
1079 135.8 49 97.56 clipbox
557.918461 97.556856 m
566.418508 97.556856 l
566.418508 144.775649 l
557.918461 144.775649 l
cl
0.678 0.761 0.922 setrgbcolor
fill
grestore
gsave
1079 135.8 49 97.56 clipbox
611.887015 97.556856 m
620.387062 97.556856 l
620.387062 163.642016 l
611.887015 163.642016 l
cl
0.678 0.761 0.922 setrgbcolor
fill
grestore
gsave
1079 135.8 49 97.56 clipbox
665.855568 97.556856 m
674.355616 97.556856 l
674.355616 150.476328 l
665.855568 150.476328 l
cl
0.678 0.761 0.922 setrgbcolor
fill
grestore
gsave
1079 135.8 49 97.56 clipbox
719.824122 97.556856 m
728.324169 97.556856 l
728.324169 148.251045 l
719.824122 148.251045 l
cl
0.678 0.761 0.922 setrgbcolor
fill
grestore
gsave
1079 135.8 49 97.56 clipbox
773.792676 97.556856 m
782.292723 97.556856 l
782.292723 135.461554 l
773.792676 135.461554 l
cl
0.678 0.761 0.922 setrgbcolor
fill
grestore
gsave
1079 135.8 49 97.56 clipbox
827.761229 97.556856 m
836.261277 97.556856 l
836.261277 148.44874 l
827.761229 148.44874 l
cl
0.678 0.761 0.922 setrgbcolor
fill
grestore
gsave
1079 135.8 49 97.56 clipbox
881.729783 97.556856 m
890.22983 97.556856 l
890.22983 135.473154 l
881.729783 135.473154 l
cl
0.678 0.761 0.922 setrgbcolor
fill
grestore
gsave
1079 135.8 49 97.56 clipbox
81.645975 97.556856 m
90.146022 97.556856 l
90.146022 157.694418 l
81.645975 157.694418 l
cl
0.922 0.941 0.980 setrgbcolor
fill
grestore
gsave
1079 135.8 49 97.56 clipbox
135.614529 97.556856 m
144.114576 97.556856 l
144.114576 150.400797 l
135.614529 150.400797 l
cl
0.922 0.941 0.980 setrgbcolor
fill
grestore
gsave
1079 135.8 49 97.56 clipbox
189.583082 97.556856 m
198.083129 97.556856 l
198.083129 163.620639 l
189.583082 163.620639 l
cl
0.922 0.941 0.980 setrgbcolor
fill
grestore
gsave
1079 135.8 49 97.56 clipbox
243.551636 97.556856 m
252.051683 97.556856 l
252.051683 155.389668 l
243.551636 155.389668 l
cl
0.922 0.941 0.980 setrgbcolor
fill
grestore
gsave
1079 135.8 49 97.56 clipbox
297.52019 97.556856 m
306.020237 97.556856 l
306.020237 151.003553 l
297.52019 151.003553 l
cl
0.922 0.941 0.980 setrgbcolor
fill
grestore
gsave
1079 135.8 49 97.56 clipbox
351.488743 97.556856 m
359.98879 97.556856 l
359.98879 142.558705 l
351.488743 142.558705 l
cl
0.922 0.941 0.980 setrgbcolor
fill
grestore
gsave
1079 135.8 49 97.56 clipbox
405.457297 97.556856 m
413.957344 97.556856 l
413.957344 148.243738 l
405.457297 148.243738 l
cl
0.922 0.941 0.980 setrgbcolor
fill
grestore
gsave
1079 135.8 49 97.56 clipbox
459.425851 97.556856 m
467.925898 97.556856 l
467.925898 140.921148 l
459.425851 140.921148 l
cl
0.922 0.941 0.980 setrgbcolor
fill
grestore
gsave
1079 135.8 49 97.56 clipbox
513.394404 97.556856 m
521.894451 97.556856 l
521.894451 157.657475 l
513.394404 157.657475 l
cl
0.922 0.941 0.980 setrgbcolor
fill
grestore
gsave
1079 135.8 49 97.56 clipbox
567.362958 97.556856 m
575.863005 97.556856 l
575.863005 144.581417 l
567.362958 144.581417 l
cl
0.922 0.941 0.980 setrgbcolor
fill
grestore
gsave
1079 135.8 49 97.56 clipbox
621.331512 97.556856 m
629.831559 97.556856 l
629.831559 163.844478 l
621.331512 163.844478 l
cl
0.922 0.941 0.980 setrgbcolor
fill
grestore
gsave
1079 135.8 49 97.56 clipbox
675.300065 97.556856 m
683.800112 97.556856 l
683.800112 150.529548 l
675.300065 150.529548 l
cl
0.922 0.941 0.980 setrgbcolor
fill
grestore
gsave
1079 135.8 49 97.56 clipbox
729.268619 97.556856 m
737.768666 97.556856 l
737.768666 148.164251 l
729.268619 148.164251 l
cl
0.922 0.941 0.980 setrgbcolor
fill
grestore
gsave
1079 135.8 49 97.56 clipbox
783.237173 97.556856 m
791.73722 97.556856 l
791.73722 135.393719 l
783.237173 135.393719 l
cl
0.922 0.941 0.980 setrgbcolor
fill
grestore
gsave
1079 135.8 49 97.56 clipbox
837.205726 97.556856 m
845.705773 97.556856 l
845.705773 148.172581 l
837.205726 148.172581 l
cl
0.922 0.941 0.980 setrgbcolor
fill
grestore
gsave
1079 135.8 49 97.56 clipbox
891.17428 97.556856 m
899.674327 97.556856 l
899.674327 135.48809 l
891.17428 135.48809 l
cl
0.922 0.941 0.980 setrgbcolor
fill
grestore
gsave
1079 135.8 49 97.56 clipbox
916.809343 97.556856 m
925.30939 97.556856 l
925.30939 182.33301 l
916.809343 182.33301 l
cl
gsave
0.078 0.161 0.322 setrgbcolor
fill
grestore
  << /PatternType 1
     /PaintType 2
     /TilingType 2
     /BBox[0 0 72 72]
     /XStep 72
     /YStep 72

     /PaintProc {
        pop
        1.000000 setlinewidth
-36 36 m
36 -36 l
-33 39 m
39 -33 l
-30 42 m
42 -30 l
-27 45 m
45 -27 l
-24 48 m
48 -24 l
-21 51 m
51 -21 l
-18 54 m
54 -18 l
-15 57 m
57 -15 l
-12 60 m
60 -12 l
-9 63 m
63 -9 l
-6 66 m
66 -6 l
-3 69 m
69 -3 l
0 72 m
72 0 l
3 75 m
75 3 l
6 78 m
78 6 l
9 81 m
81 9 l
12 84 m
84 12 l
15 87 m
87 15 l
18 90 m
90 18 l
21 93 m
93 21 l
24 96 m
96 24 l
27 99 m
99 27 l
30 102 m
102 30 l
33 105 m
105 33 l
36 108 m
108 36 l
        fill
        stroke
     } bind
   >>
   matrix
   0.0 252.000000 translate
   makepattern
   /H0 exch def
gsave
0.000000 0.000000 0.000000 H0 setpattern fill grestore
grestore
gsave
1079 135.8 49 97.56 clipbox
970.777897 97.556856 m
979.277944 97.556856 l
979.277944 161.748029 l
970.777897 161.748029 l
cl
gsave
0.078 0.161 0.322 setrgbcolor
fill
grestore
gsave
0.000000 0.000000 0.000000 H0 setpattern fill grestore
grestore
gsave
1079 135.8 49 97.56 clipbox
1024.74645 97.556856 m
1033.246497 97.556856 l
1033.246497 198.494062 l
1024.74645 198.494062 l
cl
gsave
0.078 0.161 0.322 setrgbcolor
fill
grestore
gsave
0.000000 0.000000 0.000000 H0 setpattern fill grestore
grestore
gsave
1079 135.8 49 97.56 clipbox
1078.715004 97.556856 m
1087.215051 97.556856 l
1087.215051 151.470383 l
1078.715004 151.470383 l
cl
gsave
0.078 0.161 0.322 setrgbcolor
fill
grestore
gsave
0.000000 0.000000 0.000000 H0 setpattern fill grestore
grestore
gsave
1079 135.8 49 97.56 clipbox
926.25384 97.556856 m
934.753887 97.556856 l
934.753887 177.648069 l
926.25384 177.648069 l
cl
gsave
0.200 0.400 0.800 setrgbcolor
fill
grestore
gsave
0.000000 0.000000 0.000000 H0 setpattern fill grestore
grestore
gsave
1079 135.8 49 97.56 clipbox
980.222393 97.556856 m
988.722441 97.556856 l
988.722441 158.15237 l
980.222393 158.15237 l
cl
gsave
0.200 0.400 0.800 setrgbcolor
fill
grestore
gsave
0.000000 0.000000 0.000000 H0 setpattern fill grestore
grestore
gsave
1079 135.8 49 97.56 clipbox
1034.190947 97.556856 m
1042.690994 97.556856 l
1042.690994 193.868845 l
1034.190947 193.868845 l
cl
gsave
0.200 0.400 0.800 setrgbcolor
fill
grestore
gsave
0.000000 0.000000 0.000000 H0 setpattern fill grestore
grestore
gsave
1079 135.8 49 97.56 clipbox
1088.159501 97.556856 m
1096.659548 97.556856 l
1096.659548 147.94693 l
1088.159501 147.94693 l
cl
gsave
0.200 0.400 0.800 setrgbcolor
fill
grestore
gsave
0.000000 0.000000 0.000000 H0 setpattern fill grestore
grestore
gsave
1079 135.8 49 97.56 clipbox
935.698337 97.556856 m
944.198384 97.556856 l
944.198384 176.492215 l
935.698337 176.492215 l
cl
gsave
0.678 0.761 0.922 setrgbcolor
fill
grestore
gsave
0.000000 0.000000 0.000000 H0 setpattern fill grestore
grestore
gsave
1079 135.8 49 97.56 clipbox
989.66689 97.556856 m
998.166937 97.556856 l
998.166937 157.47382 l
989.66689 157.47382 l
cl
gsave
0.678 0.761 0.922 setrgbcolor
fill
grestore
gsave
0.000000 0.000000 0.000000 H0 setpattern fill grestore
grestore
gsave
1079 135.8 49 97.56 clipbox
1043.635444 97.556856 m
1052.135491 97.556856 l
1052.135491 192.788142 l
1043.635444 192.788142 l
cl
gsave
0.678 0.761 0.922 setrgbcolor
fill
grestore
gsave
0.000000 0.000000 0.000000 H0 setpattern fill grestore
grestore
gsave
1079 135.8 49 97.56 clipbox
1097.603998 97.556856 m
1106.104045 97.556856 l
1106.104045 147.220861 l
1097.603998 147.220861 l
cl
gsave
0.678 0.761 0.922 setrgbcolor
fill
grestore
gsave
0.000000 0.000000 0.000000 H0 setpattern fill grestore
grestore
gsave
1079 135.8 49 97.56 clipbox
945.142834 97.556856 m
953.642881 97.556856 l
953.642881 154.454209 l
945.142834 154.454209 l
cl
gsave
0.922 0.941 0.980 setrgbcolor
fill
grestore
gsave
0.000000 0.000000 0.000000 H0 setpattern fill grestore
grestore
gsave
1079 135.8 49 97.56 clipbox
999.111387 97.556856 m
1007.611434 97.556856 l
1007.611434 143.912501 l
999.111387 143.912501 l
cl
gsave
0.922 0.941 0.980 setrgbcolor
fill
grestore
gsave
0.000000 0.000000 0.000000 H0 setpattern fill grestore
grestore
gsave
1079 135.8 49 97.56 clipbox
1053.079941 97.556856 m
1061.579988 97.556856 l
1061.579988 150.759379 l
1053.079941 150.759379 l
cl
gsave
0.922 0.941 0.980 setrgbcolor
fill
grestore
gsave
0.000000 0.000000 0.000000 H0 setpattern fill grestore
grestore
gsave
1079 135.8 49 97.56 clipbox
1107.048494 97.556856 m
1115.548542 97.556856 l
1115.548542 147.131826 l
1107.048494 147.131826 l
cl
gsave
0.922 0.941 0.980 setrgbcolor
fill
grestore
gsave
0.000000 0.000000 0.000000 H0 setpattern fill grestore
grestore
1.500 setlinewidth
[5.55 2.4] 0 setdash
gsave
1079 135.8 49 97.56 clipbox
912.491859 97.556856 m
912.491859 253 l
stroke
grestore
0.800 setlinewidth
0 setlinejoin
2 setlinecap
[] 0 setdash
gsave
48.995 97.556856 m
48.995 233.38 l
stroke
grestore
gsave
48.995 97.556856 m
1128.366073 97.556856 l
stroke
grestore
gsave
385.324287 201.633125 m
792.036787 201.633125 l
793.903453 201.633125 794.836787 202.566458 794.836787 204.433125 c
794.836787 223.58 l
794.836787 225.446667 793.903453 226.38 792.036787 226.38 c
385.324287 226.38 l
383.45762 226.38 382.524287 225.446667 382.524287 223.58 c
382.524287 204.433125 l
382.524287 202.566458 383.45762 201.633125 385.324287 201.633125 c
cl
grestore
gsave
388.124287 210.139375 m
416.124287 210.139375 l
416.124287 219.939375 l
388.124287 219.939375 l
cl
0.078 0.161 0.322 setrgbcolor
fill
grestore
/DejaVuSans findfont
14.000 scalefont
setfont
gsave
427.324287 210.139375 translate
0.000000 rotate
0.000000 0.000000 m /one glyphshow
8.907227 0.000000 m /zero glyphshow
17.814453 0.000000 m /zero glyphshow
grestore
gsave
482.043037 210.139375 m
510.043037 210.139375 l
510.043037 219.939375 l
482.043037 219.939375 l
cl
0.200 0.400 0.800 setrgbcolor
fill
grestore
gsave
521.243037 210.139375 translate
0.000000 rotate
0.000000 0.000000 m /one glyphshow
8.907227 0.000000 m /zero glyphshow
17.814453 0.000000 m /zero glyphshow
26.721680 0.000000 m /zero glyphshow
grestore
gsave
584.868037 210.139375 m
612.868037 210.139375 l
612.868037 219.939375 l
584.868037 219.939375 l
cl
0.678 0.761 0.922 setrgbcolor
fill
grestore
gsave
624.068037 210.139375 translate
0.000000 rotate
0.000000 0.000000 m /one glyphshow
8.907227 0.000000 m /zero glyphshow
17.814453 0.000000 m /zero glyphshow
26.721680 0.000000 m /zero glyphshow
35.628906 0.000000 m /zero glyphshow
grestore
gsave
696.599287 210.139375 m
724.599287 210.139375 l
724.599287 219.939375 l
696.599287 219.939375 l
cl
0.922 0.941 0.980 setrgbcolor
fill
grestore
gsave
735.799287 210.139375 translate
0.000000 rotate
0.000000 0.000000 m /one glyphshow
8.907227 0.000000 m /zero glyphshow
17.814453 0.000000 m /zero glyphshow
26.721680 0.000000 m /zero glyphshow
35.628906 0.000000 m /zero glyphshow
44.536133 0.000000 m /zero glyphshow
grestore

end
showpage
